Scale and Visualize qPCR results • fluidgr
…
Data

We provide the object fluidigm_expr, that stores normalized gene expression measurement.

This object is exaclty the same at the one produced in the vignette (Load and Normalize the qPCR Output).

You can load it with:

fluidigm_expr
#> # A tibble: 240 x 7
#>    sample_name sample_type target_name target_type ct_value norm_geom_mean
#>    <chr>       <chr>       <chr>       <chr>          <dbl>          <dbl>
#>  1 J-N2R3      Unknown     gene1       Test            5.79           6.57
#>  2 J-N2R3      Unknown     gene4       Test           15.0            6.57
#>  3 J-N2R3      Unknown     gene2       Test            9.60           6.57
#>  4 J-N2R3      Unknown     gene3       Test            9.52           6.57
#>  5 J-N2R2      Unknown     gene1       Test            5.92           6.46
#>  6 J-N2R2      Unknown     gene4       Test           16.8            6.46
#>  7 J-N2R2      Unknown     gene2       Test            9.27           6.46
#>  8 J-N2R2      Unknown     gene3       Test            8.83           6.46
#>  9 J-N2R1      Unknown     gene1       Test            5.53           5.76
#> 10 J-N2R1      Unknown     gene4       Test           16.4            5.76
#> # ... with 230 more rows, and 1 more variable: expression <dbl>
…
